-------------------------------------------------------------------------------
Test set: com.jspiders.restaurant.AppTest
-------------------------------------------------------------------------------
Tests run: 1, Failures: 0, Errors: 0, Skipped: 0, Time elapsed: 0.019 s - in com.jspiders.restaurant.AppTest
